<svg width="48" height="14" viewBox="0 0 48 14" fill="none" xmlns="http://www.w3.org/2000/svg">
<path fill-rule="evenodd" clip-rule="evenodd" d="M1.82443 6.19512H44.3244L40.3732 2.39024C40.2025 2.23171 40.1171 2.04268 40.1171 1.82317C40.1171 1.60366 40.1933 1.41159 40.3458 1.24695C40.4982 1.08232 40.6842 1 40.9037 1C41.1232 1 41.3183 1.07317 41.4891 1.21951L46.8671 6.41463C47.0378 6.57317 47.1232 6.76524 47.1232 6.99085C47.1232 7.21646 47.0378 7.40854 46.8671 7.56707L41.4525 12.7805C41.2939 12.9268 41.111 13 40.9037 13C40.672 13 40.4769 12.9146 40.3183 12.7439C40.1598 12.5854 40.0836 12.3963 40.0897 12.1768C40.0958 11.9573 40.1781 11.7683 40.3366 11.6098L44.2878 7.80488H1.80614C1.59882 7.80488 1.4159 7.73171 1.25736 7.58537C1.09882 7.43902 1.01346 7.2622 1.00126 7.05488C0.989066 6.82317 1.06529 6.62195 1.22992 6.45122C1.39456 6.28049 1.59272 6.19512 1.82443 6.19512Z" fill="black" stroke="white" stroke-width="0.6"/>
</svg>
