<svg width="27" height="12" viewBox="0 0 27 12" fill="none" xmlns="http://www.w3.org/2000/svg">
<path fill-rule="evenodd" clip-rule="evenodd" d="M1.3735 5.19512H23.8735L19.9223 1.39024C19.7516 1.23171 19.6662 1.04268 19.6662 0.823171C19.6662 0.603657 19.7424 0.411586 19.8948 0.246951C20.0473 0.0823162 20.2333 0 20.4528 0C20.6723 0 20.8674 0.07317 21.0381 0.219512L26.4162 5.41463C26.5869 5.57317 26.6723 5.76524 26.6723 5.99085C26.6723 6.21646 26.5869 6.40854 26.4162 6.56707L21.0016 11.7805C20.843 11.9268 20.6601 12 20.4528 12C20.2211 12 20.0259 11.9146 19.8674 11.7439C19.7089 11.5854 19.6327 11.3963 19.6388 11.1768C19.6448 10.9573 19.7272 10.7683 19.8857 10.6098L23.8369 6.80488H1.35521C1.14789 6.80488 0.964969 6.73171 0.806431 6.58537C0.647894 6.43902 0.562529 6.2622 0.550334 6.05488C0.538139 5.82317 0.614357 5.62195 0.778992 5.45122C0.943627 5.28049 0.483553 5.33333 1.3735 5.19512Z" fill="#192549"/>
</svg>
