<svg width="14" height="12" viewBox="0 0 14 12" fill="none" xmlns="http://www.w3.org/2000/svg">
<path fill-rule="evenodd" clip-rule="evenodd" d="M12.8571 0C13.1688 0 13.4338 0.10909 13.6519 0.327273C13.8701 0.545456 13.9792 0.810388 13.9792 1.12208V10.8779C13.9792 11.1896 13.8701 11.4545 13.6519 11.6727C13.4338 11.8909 13.1688 12 12.8571 12H1.12208C0.810388 12 0.545456 11.8909 0.327273 11.6727C0.10909 11.4545 0 11.1896 0 10.8779V1.12208C0 0.810388 0.10909 0.545456 0.327273 0.327273C0.545456 0.10909 0.810388 0 1.12208 0H12.8571ZM11.6571 1.12208H2.32208L6.59221 4.64416L6.62338 4.65974C6.72727 4.77403 6.85714 4.83117 7.01299 4.83117H7.02857C7.18442 4.83117 7.31948 4.77403 7.43377 4.65974L7.44935 4.62857L7.48052 4.61299L11.6571 1.12208ZM12.8571 1.57403V10.8779H1.12208V1.57403L5.84416 5.47013C6.16624 5.79221 6.56104 5.95325 7.02857 5.95325C7.49611 5.95325 7.89091 5.78701 8.21299 5.45455L12.8571 1.57403Z" fill="black"/>
</svg>
