<svg width="46" height="34" fill="none" xmlns="http://www.w3.org/2000/svg">
  <path d="M7.5764.3336h-.0037c-.4204 0-.8158.1609-1.1143.4532-.3018.2956-.468.6892-.468 1.1081v23.4116c0 .8585.7142 1.5587 1.5923 1.5609 3.7019.0086 9.9041.7661 14.1828 5.1616V7.5282c0-.291-.0758-.5644-.2187-.7907C18.0351 1.1857 11.2867.3421 7.5764.3336zM40.0098 25.3063V1.8946c0-.419-.1663-.8125-.4681-1.108-.2986-.2924-.6942-.4533-1.1141-.4533h-.0039c-3.7102.0087-10.4586.8522-13.9705 6.404-.1429.2263-.2185.4997-.2185.7907v24.5007c4.2787-4.3955 10.4809-5.153 14.1828-5.1616.878-.0022 1.5923-.7024 1.5923-1.5608z" fill="#fff"/>
  <path d="M43.6321 5.7327h-1.1532v19.574c0 2.1919-1.8192 3.9794-4.0555 3.9848-3.14.0073-8.3174.6101-11.9842 4.017 6.3417-1.5243 13.0269-.5334 16.8369.3189.4757.1064.9673-.0035 1.3484-.3017.3798-.2975.5977-.7422.5977-1.2195V7.2937c.0002-.8607-.7133-1.561-1.5901-1.561zM3.521 25.3065V5.7327H2.368c-.8766 0-1.5901.7003-1.5901 1.561v24.8119c0 .4774.2179.922.5977 1.2195.3808.298.872.4083 1.3484.3017 3.81-.8525 10.4954-1.8432 16.8367-.3189-3.6666-3.4068-8.844-4.0094-11.984-4.0167-2.2361-.0053-4.0555-1.7927-4.0555-3.9847z" fill="#fff"/>
</svg>
